<?xml version="1.0" encoding="utf-8"  standalone="no"?>
<!DOCTYPE svg PUBLIC "-//W3C//DTD SVG 1.1//EN"
 "http://www.w3.org/Graphics/SVG/1.1/DTD/svg11.dtd">
<svg 
 width="1000" height="500"
 viewBox="0 0 1000 500"
 xmlns="http://www.w3.org/2000/svg"
 xmlns:xlink="http://www.w3.org/1999/xlink"
>

<title>Gnuplot</title>
<desc>Produced by GNUPLOT 5.0 patchlevel 3 </desc>

<g id="gnuplot_canvas">

<rect x="0" y="0" width="1000" height="500" fill="none"/>
<defs>

	<circle id='gpDot' r='0.5' stroke-width='0.5'/>
	<path id='gpPt0' stroke-width='0.222' stroke='currentColor' d='M-1,0 h2 M0,-1 v2'/>
	<path id='gpPt1' stroke-width='0.222' stroke='currentColor' d='M-1,-1 L1,1 M1,-1 L-1,1'/>
	<path id='gpPt2' stroke-width='0.222' stroke='currentColor' d='M-1,0 L1,0 M0,-1 L0,1 M-1,-1 L1,1 M-1,1 L1,-1'/>
	<rect id='gpPt3' stroke-width='0.222' stroke='currentColor' x='-1' y='-1' width='2' height='2'/>
	<rect id='gpPt4' stroke-width='0.222' stroke='currentColor' fill='currentColor' x='-1' y='-1' width='2' height='2'/>
	<circle id='gpPt5' stroke-width='0.222' stroke='currentColor' cx='0' cy='0' r='1'/>
	<use xlink:href='#gpPt5' id='gpPt6' fill='currentColor' stroke='none'/>
	<path id='gpPt7' stroke-width='0.222' stroke='currentColor' d='M0,-1.33 L-1.33,0.67 L1.33,0.67 z'/>
	<use xlink:href='#gpPt7' id='gpPt8' fill='currentColor' stroke='none'/>
	<use xlink:href='#gpPt7' id='gpPt9' stroke='currentColor' transform='rotate(180)'/>
	<use xlink:href='#gpPt9' id='gpPt10' fill='currentColor' stroke='none'/>
	<use xlink:href='#gpPt3' id='gpPt11' stroke='currentColor' transform='rotate(45)'/>
	<use xlink:href='#gpPt11' id='gpPt12' fill='currentColor' stroke='none'/>
	<path id='gpPt13' stroke-width='0.222' stroke='currentColor' d='M0,1.330 L1.265,0.411 L0.782,-1.067 L-0.782,-1.076 L-1.265,0.411 z'/>
	<use xlink:href='#gpPt13' id='gpPt14' fill='currentColor' stroke='none'/>
	<filter id='textbox' filterUnits='objectBoundingBox' x='0' y='0' height='1' width='1'>
	  <feFlood flood-color='white' flood-opacity='1' result='bgnd'/>
	  <feComposite in='SourceGraphic' in2='bgnd' operator='atop'/>
	</filter>
	<filter id='greybox' filterUnits='objectBoundingBox' x='0' y='0' height='1' width='1'>
	  <feFlood flood-color='lightgrey' flood-opacity='1' result='grey'/>
	  <feComposite in='SourceGraphic' in2='grey' operator='atop'/>
	</filter>
</defs>
<g fill="none" color="white" stroke="currentColor" stroke-width="1.00" stroke-linecap="round" stroke-linejoin="round">
</g>
<g fill="none" color="black" stroke="currentColor" stroke-width="1.00" stroke-linecap="round" stroke-linejoin="round">
</g>
<g fill="none" color="gray" stroke="currentColor" stroke-width="1.00" stroke-linecap="round" stroke-linejoin="round">
	<path stroke='rgb(128, 128, 128)' stroke-dasharray='2,4' class="gridline"  d='M71.9,418.1 L975.0,418.1  '/></g>
<g fill="none" color="black" stroke="currentColor" stroke-width="1.00" stroke-linecap="round" stroke-linejoin="round">
	<path stroke='rgb(128, 128, 128)'  d='M71.9,418.1 L80.9,418.1  '/>	<g transform="translate(63.6,422.6)" stroke="none" fill="rgb(0,0,0)" font-family="serif" font-size="12.00"  text-anchor="end">
		<text><tspan font-family="serif" > 220</tspan></text>
	</g>
</g>
<g fill="none" color="black" stroke="currentColor" stroke-width="1.00" stroke-linecap="round" stroke-linejoin="round">
</g>
<g fill="none" color="gray" stroke="currentColor" stroke-width="1.00" stroke-linecap="round" stroke-linejoin="round">
	<path stroke='rgb(128, 128, 128)' stroke-dasharray='2,4' class="gridline"  d='M71.9,296.8 L975.0,296.8  '/></g>
<g fill="none" color="black" stroke="currentColor" stroke-width="1.00" stroke-linecap="round" stroke-linejoin="round">
	<path stroke='rgb(128, 128, 128)'  d='M71.9,296.8 L80.9,296.8  '/>	<g transform="translate(63.6,301.3)" stroke="none" fill="rgb(0,0,0)" font-family="serif" font-size="12.00"  text-anchor="end">
		<text><tspan font-family="serif" > 230</tspan></text>
	</g>
</g>
<g fill="none" color="black" stroke="currentColor" stroke-width="1.00" stroke-linecap="round" stroke-linejoin="round">
</g>
<g fill="none" color="gray" stroke="currentColor" stroke-width="1.00" stroke-linecap="round" stroke-linejoin="round">
	<path stroke='rgb(128, 128, 128)' stroke-dasharray='2,4' class="gridline"  d='M71.9,175.4 L975.0,175.4  '/></g>
<g fill="none" color="black" stroke="currentColor" stroke-width="1.00" stroke-linecap="round" stroke-linejoin="round">
	<path stroke='rgb(128, 128, 128)'  d='M71.9,175.4 L80.9,175.4  '/>	<g transform="translate(63.6,179.9)" stroke="none" fill="rgb(0,0,0)" font-family="serif" font-size="12.00"  text-anchor="end">
		<text><tspan font-family="serif" > 240</tspan></text>
	</g>
</g>
<g fill="none" color="black" stroke="currentColor" stroke-width="1.00" stroke-linecap="round" stroke-linejoin="round">
</g>
<g fill="none" color="gray" stroke="currentColor" stroke-width="1.00" stroke-linecap="round" stroke-linejoin="round">
	<path stroke='rgb(128, 128, 128)' stroke-dasharray='2,4' class="gridline"  d='M71.9,54.1 L975.0,54.1  '/></g>
<g fill="none" color="black" stroke="currentColor" stroke-width="1.00" stroke-linecap="round" stroke-linejoin="round">
	<path stroke='rgb(128, 128, 128)'  d='M71.9,54.1 L80.9,54.1  '/>	<g transform="translate(63.6,58.6)" stroke="none" fill="rgb(0,0,0)" font-family="serif" font-size="12.00"  text-anchor="end">
		<text><tspan font-family="serif" > 250</tspan></text>
	</g>
</g>
<g fill="none" color="black" stroke="currentColor" stroke-width="1.00" stroke-linecap="round" stroke-linejoin="round">
</g>
<g fill="none" color="gray" stroke="currentColor" stroke-width="1.00" stroke-linecap="round" stroke-linejoin="round">
	<path stroke='rgb(128, 128, 128)' stroke-dasharray='2,4' class="gridline"  d='M71.9,442.4 L71.9,54.1  '/></g>
<g fill="none" color="black" stroke="currentColor" stroke-width="1.00" stroke-linecap="round" stroke-linejoin="round">
	<path stroke='rgb(128, 128, 128)'  d='M71.9,442.4 L71.9,433.4  '/>	<g transform="translate(71.9,464.9)" stroke="none" fill="rgb(0,0,0)" font-family="serif" font-size="12.00"  text-anchor="middle">
		<text><tspan font-family="serif" > 0</tspan></text>
	</g>
</g>
<g fill="none" color="black" stroke="currentColor" stroke-width="1.00" stroke-linecap="round" stroke-linejoin="round">
</g>
<g fill="none" color="gray" stroke="currentColor" stroke-width="1.00" stroke-linecap="round" stroke-linejoin="round">
	<path stroke='rgb(128, 128, 128)' stroke-dasharray='2,4' class="gridline"  d='M975.0,442.4 L975.0,54.1  '/></g>
<g fill="none" color="black" stroke="currentColor" stroke-width="1.00" stroke-linecap="round" stroke-linejoin="round">
	<path stroke='rgb(128, 128, 128)'  d='M975.0,442.4 L975.0,433.4  '/>	<g transform="translate(975.0,464.9)" stroke="none" fill="rgb(0,0,0)" font-family="serif" font-size="12.00"  text-anchor="middle">
		<text><tspan font-family="serif" > 1</tspan></text>
	</g>
</g>
<g fill="none" color="black" stroke="currentColor" stroke-width="1.00" stroke-linecap="round" stroke-linejoin="round">
</g>
<g fill="none" color="black" stroke="currentColor" stroke-width="1.00" stroke-linecap="round" stroke-linejoin="round">
	<path stroke='rgb(128, 128, 128)'  d='M71.9,54.1 L71.9,442.4 L975.0,442.4 M975.0,54.1 M71.9,54.1  '/></g>
<g fill="none" color="black" stroke="currentColor" stroke-width="1.00" stroke-linecap="round" stroke-linejoin="round">
	<g transform="translate(17.6,248.3) rotate(270)" stroke="none" fill="black" font-family="serif" font-size="12.00"  text-anchor="middle">
		<text><tspan font-family="serif" >Number of colors</tspan></text>
	</g>
</g>
<g fill="none" color="black" stroke="currentColor" stroke-width="1.00" stroke-linecap="round" stroke-linejoin="round">
	<g transform="translate(523.4,491.9)" stroke="none" fill="black" font-family="serif" font-size="12.00"  text-anchor="middle">
		<text><tspan font-family="serif" >Running time (cpu hours)</tspan></text>
	</g>
</g>
<g fill="none" color="black" stroke="currentColor" stroke-width="1.00" stroke-linecap="round" stroke-linejoin="round">
	<g transform="translate(523.4,31.6)" stroke="none" fill="black" font-family="serif" font-size="12.00"  text-anchor="middle">
		<text><tspan font-family="serif" >Number of colors over time (no info)</tspan></text>
	</g>
</g>
<g fill="none" color="black" stroke="currentColor" stroke-width="1.00" stroke-linecap="round" stroke-linejoin="round">
	<path stroke='rgb(128, 128, 128)'  d='M164.3,81.1 L164.3,63.1 L966.7,63.1 L966.7,81.1 L164.3,81.1 Z  '/></g>
	<g id="gnuplot_plot_1" ><title>P:0.5</title>
<g fill="none" color="white" stroke="rgb(128, 128, 128)" stroke-width="2.00" stroke-linecap="round" stroke-linejoin="round">
</g>
<g fill="none" color="black" stroke="currentColor" stroke-width="2.00" stroke-linecap="round" stroke-linejoin="round">
	<g transform="translate(223.1,76.6)" stroke="none" fill="black" font-family="serif" font-size="12.00"  text-anchor="start">
		<text><tspan font-family="serif" >P:0.5</tspan></text>
	</g>
</g>
<g fill="none" color="black" stroke="currentColor" stroke-width="2.00" stroke-linecap="round" stroke-linejoin="round">
	<path stroke='rgb( 25,  25, 112)'  d='M172.6,72.1 L214.8,72.1 M158.9,54.1 L161.5,54.1 L161.5,66.2 L165.1,66.2 L165.1,78.4 L171.2,78.4
		L171.2,90.5 L174.5,90.5 L174.5,102.6 L177.7,102.6 L177.7,114.8 L182.0,114.8 L182.0,126.9 L184.4,126.9
		L184.4,139.0 L192.6,139.0 L192.6,151.2 L199.0,151.2 L199.0,163.3 L211.0,163.3 L211.0,175.4 L234.5,175.4
		L234.5,187.6 L252.3,187.6 L252.3,199.7 L277.6,199.7 L277.6,211.8 L318.8,211.8 L318.8,224.0 L472.7,224.0
		L472.7,236.1 L486.4,236.1 L486.4,248.2 L975.0,248.2  '/></g>
	</g>
	<g id="gnuplot_plot_2" ><title>P:1.0</title>
<g fill="none" color="black" stroke="currentColor" stroke-width="2.00" stroke-linecap="round" stroke-linejoin="round">
	<g transform="translate(323.4,76.6)" stroke="none" fill="black" font-family="serif" font-size="12.00"  text-anchor="start">
		<text><tspan font-family="serif" >P:1.0</tspan></text>
	</g>
</g>
<g fill="none" color="black" stroke="currentColor" stroke-width="2.00" stroke-linecap="round" stroke-linejoin="round">
	<path stroke='rgb(  0, 255, 255)'  d='M272.9,72.1 L315.1,72.1 M164.3,54.1 L167.8,54.1 L167.8,66.2 L171.1,66.2 L171.1,78.4 L177.0,78.4
		L177.0,90.5 L179.0,90.5 L179.0,102.6 L180.8,102.6 L180.8,114.8 L184.3,114.8 L184.3,126.9 L192.2,126.9
		L192.2,139.0 L197.5,139.0 L197.5,151.2 L204.1,151.2 L204.1,163.3 L213.3,163.3 L213.3,175.4 L224.4,175.4
		L224.4,187.6 L238.3,187.6 L238.3,199.7 L275.2,199.7 L275.2,211.8 L321.6,211.8 L321.6,224.0 L350.9,224.0
		L350.9,236.1 L369.1,236.1 L369.1,248.2 L394.0,248.2 L394.0,260.4 L431.2,260.4 L431.2,272.5 L491.1,272.5
		L491.1,284.7 L534.4,284.7 L534.4,296.8 L619.1,296.8 L619.1,308.9 L877.9,308.9 L877.9,321.1  '/></g>
	</g>
	<g id="gnuplot_plot_3" ><title>P:1.2</title>
<g fill="none" color="black" stroke="currentColor" stroke-width="2.00" stroke-linecap="round" stroke-linejoin="round">
	<g transform="translate(423.7,76.6)" stroke="none" fill="black" font-family="serif" font-size="12.00"  text-anchor="start">
		<text><tspan font-family="serif" >P:1.2</tspan></text>
	</g>
</g>
<g fill="none" color="black" stroke="currentColor" stroke-width="2.00" stroke-linecap="round" stroke-linejoin="round">
	<path stroke='rgb(255,   0,   0)'  d='M373.2,72.1 L415.4,72.1 M158.7,54.1 L160.8,54.1 L160.8,66.2 L162.1,66.2 L162.1,78.4 L165.9,78.4
		L165.9,90.5 L169.9,90.5 L169.9,102.6 L173.0,102.6 L173.0,114.8 L180.1,114.8 L180.1,126.9 L185.5,126.9
		L185.5,139.0 L190.2,139.0 L190.2,151.2 L201.5,151.2 L201.5,163.3 L209.7,163.3 L209.7,175.4 L220.8,175.4
		L220.8,187.6 L233.0,187.6 L233.0,199.7 L249.2,199.7 L249.2,211.8 L266.6,211.8 L266.6,224.0 L289.6,224.0
		L289.6,236.1 L311.8,236.1 L311.8,248.2 L388.8,248.2 L388.8,260.4 L434.6,260.4 L434.6,272.5 L537.1,272.5
		L537.1,284.7 L623.8,284.7 L623.8,296.8 L704.4,296.8 L704.4,308.9 L975.0,308.9  '/></g>
	</g>
	<g id="gnuplot_plot_4" ><title>P:1.5</title>
<g fill="none" color="black" stroke="currentColor" stroke-width="2.00" stroke-linecap="round" stroke-linejoin="round">
	<g transform="translate(524.0,76.6)" stroke="none" fill="black" font-family="serif" font-size="12.00"  text-anchor="start">
		<text><tspan font-family="serif" >P:1.5</tspan></text>
	</g>
</g>
<g fill="none" color="black" stroke="currentColor" stroke-width="2.00" stroke-linecap="round" stroke-linejoin="round">
	<path stroke='rgb(255, 182, 193)'  d='M473.5,72.1 L515.7,72.1 M159.0,54.1 L160.3,54.1 L160.3,66.2 L163.0,66.2 L163.0,78.4 L164.9,78.4
		L164.9,90.5 L169.8,90.5 L169.8,102.6 L175.7,102.6 L175.7,114.8 L181.8,114.8 L181.8,126.9 L188.5,126.9
		L188.5,139.0 L197.0,139.0 L197.0,151.2 L209.0,151.2 L209.0,163.3 L221.7,163.3 L221.7,175.4 L242.0,175.4
		L242.0,187.6 L256.1,187.6 L256.1,199.7 L280.5,199.7 L280.5,211.8 L304.6,211.8 L304.6,224.0 L333.4,224.0
		L333.4,236.1 L491.3,236.1 L491.3,248.2 L526.8,248.2 L526.8,260.4 L568.7,260.4 L568.7,272.5 L622.1,272.5
		L622.1,284.7 L710.6,284.7 L710.6,296.8 L815.0,296.8 L815.0,308.9 L975.0,308.9  '/></g>
	</g>
	<g id="gnuplot_plot_5" ><title>P:2.0</title>
<g fill="none" color="black" stroke="currentColor" stroke-width="2.00" stroke-linecap="round" stroke-linejoin="round">
	<g transform="translate(624.3,76.6)" stroke="none" fill="black" font-family="serif" font-size="12.00"  text-anchor="start">
		<text><tspan font-family="serif" >P:2.0</tspan></text>
	</g>
</g>
<g fill="none" color="black" stroke="currentColor" stroke-width="2.00" stroke-linecap="round" stroke-linejoin="round">
	<path stroke='rgb(  0, 255,   0)'  d='M573.8,72.1 L616.0,72.1 M159.0,54.1 L162.5,54.1 L162.5,66.2 L166.1,66.2 L166.1,78.4 L171.7,78.4
		L171.7,90.5 L177.0,90.5 L177.0,102.6 L183.3,102.6 L183.3,114.8 L189.1,114.8 L189.1,126.9 L190.7,126.9
		L190.7,139.0 L199.8,139.0 L199.8,151.2 L210.7,151.2 L210.7,163.3 L222.9,163.3 L222.9,175.4 L239.8,175.4
		L239.8,187.6 L264.0,187.6 L264.0,199.7 L292.1,199.7 L292.1,211.8 L326.5,211.8 L326.5,224.0 L359.1,224.0
		L359.1,236.1 L426.9,236.1 L426.9,248.2 L485.8,248.2 L485.8,260.4 L529.9,260.4 L529.9,272.5 L598.3,272.5
		L598.3,284.7 L779.8,284.7 L779.8,296.8 L941.1,296.8 L941.1,308.9 L975.0,308.9  '/></g>
	</g>
	<g id="gnuplot_plot_6" ><title>P:2.5</title>
<g fill="none" color="black" stroke="currentColor" stroke-width="2.00" stroke-linecap="round" stroke-linejoin="round">
	<g transform="translate(724.6,76.6)" stroke="none" fill="black" font-family="serif" font-size="12.00"  text-anchor="start">
		<text><tspan font-family="serif" >P:2.5</tspan></text>
	</g>
</g>
<g fill="none" color="black" stroke="currentColor" stroke-width="2.00" stroke-linecap="round" stroke-linejoin="round">
	<path stroke='rgb(  0, 100,   0)'  d='M674.1,72.1 L716.3,72.1 M161.7,54.1 L165.3,54.1 L165.3,66.2 L167.4,66.2 L167.4,78.4 L171.5,78.4
		L171.5,90.5 L173.6,90.5 L173.6,102.6 L176.6,102.6 L176.6,114.8 L188.9,114.8 L188.9,126.9 L206.8,126.9
		L206.8,139.0 L219.0,139.0 L219.0,151.2 L232.7,151.2 L232.7,163.3 L254.1,163.3 L254.1,175.4 L281.8,175.4
		L281.8,187.6 L328.5,187.6 L328.5,199.7 L376.8,199.7 L376.8,211.8 L434.8,211.8 L434.8,224.0 L506.0,224.0
		L506.0,236.1 L587.1,236.1 L587.1,248.2 L671.4,248.2 L671.4,260.4 L788.8,260.4 L788.8,272.5 L925.9,272.5
		L925.9,284.7 L975.0,284.7  '/></g>
	</g>
	<g id="gnuplot_plot_7" ><title>P:3.0</title>
<g fill="none" color="black" stroke="currentColor" stroke-width="2.00" stroke-linecap="round" stroke-linejoin="round">
	<g transform="translate(824.9,76.6)" stroke="none" fill="black" font-family="serif" font-size="12.00"  text-anchor="start">
		<text><tspan font-family="serif" >P:3.0</tspan></text>
	</g>
</g>
<g fill="none" color="black" stroke="currentColor" stroke-width="2.00" stroke-linecap="round" stroke-linejoin="round">
	<path stroke='rgb(255,   0, 255)'  d='M774.4,72.1 L816.6,72.1 M166.4,54.1 L167.7,54.1 L167.7,66.2 L169.3,66.2 L169.3,78.4 L175.1,78.4
		L175.1,90.5 L182.7,90.5 L182.7,102.6 L196.5,102.6 L196.5,114.8 L210.0,114.8 L210.0,126.9 L230.9,126.9
		L230.9,139.0 L250.3,139.0 L250.3,151.2 L283.6,151.2 L283.6,163.3 L317.6,163.3 L317.6,175.4 L356.6,175.4
		L356.6,187.6 L419.3,187.6 L419.3,199.7 L478.9,199.7 L478.9,211.8 L552.0,211.8 L552.0,224.0 L630.4,224.0
		L630.4,236.1 L711.9,236.1 L711.9,248.2 L831.7,248.2 L831.7,260.4 L975.0,260.4  '/></g>
	</g>
	<g id="gnuplot_plot_8" ><title>P:5.0</title>
<g fill="none" color="black" stroke="currentColor" stroke-width="2.00" stroke-linecap="round" stroke-linejoin="round">
	<g transform="translate(925.2,76.6)" stroke="none" fill="black" font-family="serif" font-size="12.00"  text-anchor="start">
		<text><tspan font-family="serif" >P:5.0</tspan></text>
	</g>
</g>
<g fill="none" color="black" stroke="currentColor" stroke-width="2.00" stroke-linecap="round" stroke-linejoin="round">
	<path stroke='rgb(255, 215,   0)'  d='M874.7,72.1 L916.9,72.1 M163.0,54.1 L165.5,54.1 L165.5,66.2 L169.8,66.2 L169.8,78.4 L179.6,78.4
		L179.6,90.5 L209.0,90.5 L209.0,102.6 L262.1,102.6 L262.1,114.8 L308.3,114.8 L308.3,126.9 L353.1,126.9
		L353.1,139.0 L420.9,139.0 L420.9,151.2 L493.1,151.2 L493.1,163.3 L560.2,163.3 L560.2,175.4 L652.3,175.4
		L652.3,187.6 L757.4,187.6 L757.4,199.7 L851.7,199.7 L851.7,211.8 L975.0,211.8  '/></g>
	</g>
<g fill="none" color="black" stroke="currentColor" stroke-width="2.00" stroke-linecap="round" stroke-linejoin="round">
</g>
<g fill="none" color="black" stroke="black" stroke-width="1.00" stroke-linecap="round" stroke-linejoin="round">
</g>
<g fill="none" color="black" stroke="currentColor" stroke-width="1.00" stroke-linecap="round" stroke-linejoin="round">
</g>
</g>
</svg>

