<?xml version="1.0" encoding="utf-8"  standalone="no"?>
<!DOCTYPE svg PUBLIC "-//W3C//DTD SVG 1.1//EN"
 "http://www.w3.org/Graphics/SVG/1.1/DTD/svg11.dtd">
<svg 
 width="1000" height="500"
 viewBox="0 0 1000 500"
 xmlns="http://www.w3.org/2000/svg"
 xmlns:xlink="http://www.w3.org/1999/xlink"
>

<title>Gnuplot</title>
<desc>Produced by GNUPLOT 5.0 patchlevel 3 </desc>

<g id="gnuplot_canvas">

<rect x="0" y="0" width="1000" height="500" fill="none"/>
<defs>

	<circle id='gpDot' r='0.5' stroke-width='0.5'/>
	<path id='gpPt0' stroke-width='0.222' stroke='currentColor' d='M-1,0 h2 M0,-1 v2'/>
	<path id='gpPt1' stroke-width='0.222' stroke='currentColor' d='M-1,-1 L1,1 M1,-1 L-1,1'/>
	<path id='gpPt2' stroke-width='0.222' stroke='currentColor' d='M-1,0 L1,0 M0,-1 L0,1 M-1,-1 L1,1 M-1,1 L1,-1'/>
	<rect id='gpPt3' stroke-width='0.222' stroke='currentColor' x='-1' y='-1' width='2' height='2'/>
	<rect id='gpPt4' stroke-width='0.222' stroke='currentColor' fill='currentColor' x='-1' y='-1' width='2' height='2'/>
	<circle id='gpPt5' stroke-width='0.222' stroke='currentColor' cx='0' cy='0' r='1'/>
	<use xlink:href='#gpPt5' id='gpPt6' fill='currentColor' stroke='none'/>
	<path id='gpPt7' stroke-width='0.222' stroke='currentColor' d='M0,-1.33 L-1.33,0.67 L1.33,0.67 z'/>
	<use xlink:href='#gpPt7' id='gpPt8' fill='currentColor' stroke='none'/>
	<use xlink:href='#gpPt7' id='gpPt9' stroke='currentColor' transform='rotate(180)'/>
	<use xlink:href='#gpPt9' id='gpPt10' fill='currentColor' stroke='none'/>
	<use xlink:href='#gpPt3' id='gpPt11' stroke='currentColor' transform='rotate(45)'/>
	<use xlink:href='#gpPt11' id='gpPt12' fill='currentColor' stroke='none'/>
	<path id='gpPt13' stroke-width='0.222' stroke='currentColor' d='M0,1.330 L1.265,0.411 L0.782,-1.067 L-0.782,-1.076 L-1.265,0.411 z'/>
	<use xlink:href='#gpPt13' id='gpPt14' fill='currentColor' stroke='none'/>
	<filter id='textbox' filterUnits='objectBoundingBox' x='0' y='0' height='1' width='1'>
	  <feFlood flood-color='white' flood-opacity='1' result='bgnd'/>
	  <feComposite in='SourceGraphic' in2='bgnd' operator='atop'/>
	</filter>
	<filter id='greybox' filterUnits='objectBoundingBox' x='0' y='0' height='1' width='1'>
	  <feFlood flood-color='lightgrey' flood-opacity='1' result='grey'/>
	  <feComposite in='SourceGraphic' in2='grey' operator='atop'/>
	</filter>
</defs>
<g fill="none" color="white" stroke="currentColor" stroke-width="1.00" stroke-linecap="round" stroke-linejoin="round">
</g>
<g fill="none" color="black" stroke="currentColor" stroke-width="1.00" stroke-linecap="round" stroke-linejoin="round">
</g>
<g fill="none" color="gray" stroke="currentColor" stroke-width="1.00" stroke-linecap="round" stroke-linejoin="round">
	<path stroke='rgb(128, 128, 128)' stroke-dasharray='2,4' class="gridline"  d='M71.9,418.1 L975.0,418.1  '/></g>
<g fill="none" color="black" stroke="currentColor" stroke-width="1.00" stroke-linecap="round" stroke-linejoin="round">
	<path stroke='rgb(128, 128, 128)'  d='M71.9,418.1 L80.9,418.1  '/>	<g transform="translate(63.6,422.6)" stroke="none" fill="rgb(0,0,0)" font-family="serif" font-size="12.00"  text-anchor="end">
		<text><tspan font-family="serif" > 220</tspan></text>
	</g>
</g>
<g fill="none" color="black" stroke="currentColor" stroke-width="1.00" stroke-linecap="round" stroke-linejoin="round">
</g>
<g fill="none" color="gray" stroke="currentColor" stroke-width="1.00" stroke-linecap="round" stroke-linejoin="round">
	<path stroke='rgb(128, 128, 128)' stroke-dasharray='2,4' class="gridline"  d='M71.9,296.8 L975.0,296.8  '/></g>
<g fill="none" color="black" stroke="currentColor" stroke-width="1.00" stroke-linecap="round" stroke-linejoin="round">
	<path stroke='rgb(128, 128, 128)'  d='M71.9,296.8 L80.9,296.8  '/>	<g transform="translate(63.6,301.3)" stroke="none" fill="rgb(0,0,0)" font-family="serif" font-size="12.00"  text-anchor="end">
		<text><tspan font-family="serif" > 230</tspan></text>
	</g>
</g>
<g fill="none" color="black" stroke="currentColor" stroke-width="1.00" stroke-linecap="round" stroke-linejoin="round">
</g>
<g fill="none" color="gray" stroke="currentColor" stroke-width="1.00" stroke-linecap="round" stroke-linejoin="round">
	<path stroke='rgb(128, 128, 128)' stroke-dasharray='2,4' class="gridline"  d='M71.9,175.4 L975.0,175.4  '/></g>
<g fill="none" color="black" stroke="currentColor" stroke-width="1.00" stroke-linecap="round" stroke-linejoin="round">
	<path stroke='rgb(128, 128, 128)'  d='M71.9,175.4 L80.9,175.4  '/>	<g transform="translate(63.6,179.9)" stroke="none" fill="rgb(0,0,0)" font-family="serif" font-size="12.00"  text-anchor="end">
		<text><tspan font-family="serif" > 240</tspan></text>
	</g>
</g>
<g fill="none" color="black" stroke="currentColor" stroke-width="1.00" stroke-linecap="round" stroke-linejoin="round">
</g>
<g fill="none" color="gray" stroke="currentColor" stroke-width="1.00" stroke-linecap="round" stroke-linejoin="round">
	<path stroke='rgb(128, 128, 128)' stroke-dasharray='2,4' class="gridline"  d='M71.9,54.1 L975.0,54.1  '/></g>
<g fill="none" color="black" stroke="currentColor" stroke-width="1.00" stroke-linecap="round" stroke-linejoin="round">
	<path stroke='rgb(128, 128, 128)'  d='M71.9,54.1 L80.9,54.1  '/>	<g transform="translate(63.6,58.6)" stroke="none" fill="rgb(0,0,0)" font-family="serif" font-size="12.00"  text-anchor="end">
		<text><tspan font-family="serif" > 250</tspan></text>
	</g>
</g>
<g fill="none" color="black" stroke="currentColor" stroke-width="1.00" stroke-linecap="round" stroke-linejoin="round">
</g>
<g fill="none" color="gray" stroke="currentColor" stroke-width="1.00" stroke-linecap="round" stroke-linejoin="round">
	<path stroke='rgb(128, 128, 128)' stroke-dasharray='2,4' class="gridline"  d='M71.9,442.4 L71.9,54.1  '/></g>
<g fill="none" color="black" stroke="currentColor" stroke-width="1.00" stroke-linecap="round" stroke-linejoin="round">
	<path stroke='rgb(128, 128, 128)'  d='M71.9,442.4 L71.9,433.4  '/>	<g transform="translate(71.9,464.9)" stroke="none" fill="rgb(0,0,0)" font-family="serif" font-size="12.00"  text-anchor="middle">
		<text><tspan font-family="serif" > 0</tspan></text>
	</g>
</g>
<g fill="none" color="black" stroke="currentColor" stroke-width="1.00" stroke-linecap="round" stroke-linejoin="round">
</g>
<g fill="none" color="gray" stroke="currentColor" stroke-width="1.00" stroke-linecap="round" stroke-linejoin="round">
	<path stroke='rgb(128, 128, 128)' stroke-dasharray='2,4' class="gridline"  d='M252.5,442.4 L252.5,81.1 M252.5,63.1 L252.5,54.1  '/></g>
<g fill="none" color="black" stroke="currentColor" stroke-width="1.00" stroke-linecap="round" stroke-linejoin="round">
	<path stroke='rgb(128, 128, 128)'  d='M252.5,442.4 L252.5,433.4  '/>	<g transform="translate(252.5,464.9)" stroke="none" fill="rgb(0,0,0)" font-family="serif" font-size="12.00"  text-anchor="middle">
		<text><tspan font-family="serif" > 1</tspan></text>
	</g>
</g>
<g fill="none" color="black" stroke="currentColor" stroke-width="1.00" stroke-linecap="round" stroke-linejoin="round">
</g>
<g fill="none" color="gray" stroke="currentColor" stroke-width="1.00" stroke-linecap="round" stroke-linejoin="round">
	<path stroke='rgb(128, 128, 128)' stroke-dasharray='2,4' class="gridline"  d='M433.1,442.4 L433.1,81.1 M433.1,63.1 L433.1,54.1  '/></g>
<g fill="none" color="black" stroke="currentColor" stroke-width="1.00" stroke-linecap="round" stroke-linejoin="round">
	<path stroke='rgb(128, 128, 128)'  d='M433.1,442.4 L433.1,433.4  '/>	<g transform="translate(433.1,464.9)" stroke="none" fill="rgb(0,0,0)" font-family="serif" font-size="12.00"  text-anchor="middle">
		<text><tspan font-family="serif" > 2</tspan></text>
	</g>
</g>
<g fill="none" color="black" stroke="currentColor" stroke-width="1.00" stroke-linecap="round" stroke-linejoin="round">
</g>
<g fill="none" color="gray" stroke="currentColor" stroke-width="1.00" stroke-linecap="round" stroke-linejoin="round">
	<path stroke='rgb(128, 128, 128)' stroke-dasharray='2,4' class="gridline"  d='M613.8,442.4 L613.8,81.1 M613.8,63.1 L613.8,54.1  '/></g>
<g fill="none" color="black" stroke="currentColor" stroke-width="1.00" stroke-linecap="round" stroke-linejoin="round">
	<path stroke='rgb(128, 128, 128)'  d='M613.8,442.4 L613.8,433.4  '/>	<g transform="translate(613.8,464.9)" stroke="none" fill="rgb(0,0,0)" font-family="serif" font-size="12.00"  text-anchor="middle">
		<text><tspan font-family="serif" > 3</tspan></text>
	</g>
</g>
<g fill="none" color="black" stroke="currentColor" stroke-width="1.00" stroke-linecap="round" stroke-linejoin="round">
</g>
<g fill="none" color="gray" stroke="currentColor" stroke-width="1.00" stroke-linecap="round" stroke-linejoin="round">
	<path stroke='rgb(128, 128, 128)' stroke-dasharray='2,4' class="gridline"  d='M794.4,442.4 L794.4,81.1 M794.4,63.1 L794.4,54.1  '/></g>
<g fill="none" color="black" stroke="currentColor" stroke-width="1.00" stroke-linecap="round" stroke-linejoin="round">
	<path stroke='rgb(128, 128, 128)'  d='M794.4,442.4 L794.4,433.4  '/>	<g transform="translate(794.4,464.9)" stroke="none" fill="rgb(0,0,0)" font-family="serif" font-size="12.00"  text-anchor="middle">
		<text><tspan font-family="serif" > 4</tspan></text>
	</g>
</g>
<g fill="none" color="black" stroke="currentColor" stroke-width="1.00" stroke-linecap="round" stroke-linejoin="round">
</g>
<g fill="none" color="gray" stroke="currentColor" stroke-width="1.00" stroke-linecap="round" stroke-linejoin="round">
	<path stroke='rgb(128, 128, 128)' stroke-dasharray='2,4' class="gridline"  d='M975.0,442.4 L975.0,54.1  '/></g>
<g fill="none" color="black" stroke="currentColor" stroke-width="1.00" stroke-linecap="round" stroke-linejoin="round">
	<path stroke='rgb(128, 128, 128)'  d='M975.0,442.4 L975.0,433.4  '/>	<g transform="translate(975.0,464.9)" stroke="none" fill="rgb(0,0,0)" font-family="serif" font-size="12.00"  text-anchor="middle">
		<text><tspan font-family="serif" > 5</tspan></text>
	</g>
</g>
<g fill="none" color="black" stroke="currentColor" stroke-width="1.00" stroke-linecap="round" stroke-linejoin="round">
</g>
<g fill="none" color="black" stroke="currentColor" stroke-width="1.00" stroke-linecap="round" stroke-linejoin="round">
	<path stroke='rgb(128, 128, 128)'  d='M71.9,54.1 L71.9,442.4 L975.0,442.4 M975.0,54.1 M71.9,54.1  '/></g>
<g fill="none" color="black" stroke="currentColor" stroke-width="1.00" stroke-linecap="round" stroke-linejoin="round">
	<g transform="translate(17.6,248.3) rotate(270)" stroke="none" fill="black" font-family="serif" font-size="12.00"  text-anchor="middle">
		<text><tspan font-family="serif" >Number of colors</tspan></text>
	</g>
</g>
<g fill="none" color="black" stroke="currentColor" stroke-width="1.00" stroke-linecap="round" stroke-linejoin="round">
	<g transform="translate(523.4,491.9)" stroke="none" fill="black" font-family="serif" font-size="12.00"  text-anchor="middle">
		<text><tspan font-family="serif" >Running time (cpu hours)</tspan></text>
	</g>
</g>
<g fill="none" color="black" stroke="currentColor" stroke-width="1.00" stroke-linecap="round" stroke-linejoin="round">
	<g transform="translate(523.4,31.6)" stroke="none" fill="black" font-family="serif" font-size="12.00"  text-anchor="middle">
		<text><tspan font-family="serif" >Number of colors over time</tspan></text>
	</g>
</g>
<g fill="none" color="black" stroke="currentColor" stroke-width="1.00" stroke-linecap="round" stroke-linejoin="round">
	<path stroke='rgb(128, 128, 128)'  d='M164.3,81.1 L164.3,63.1 L966.7,63.1 L966.7,81.1 L164.3,81.1 Z  '/></g>
	<g id="gnuplot_plot_1" ><title>P:0.5</title>
<g fill="none" color="white" stroke="rgb(128, 128, 128)" stroke-width="2.00" stroke-linecap="round" stroke-linejoin="round">
</g>
<g fill="none" color="black" stroke="currentColor" stroke-width="2.00" stroke-linecap="round" stroke-linejoin="round">
	<g transform="translate(223.1,76.6)" stroke="none" fill="black" font-family="serif" font-size="12.00"  text-anchor="start">
		<text><tspan font-family="serif" >P:0.5</tspan></text>
	</g>
</g>
<g fill="none" color="black" stroke="currentColor" stroke-width="2.00" stroke-linecap="round" stroke-linejoin="round">
	<path stroke='rgb( 25,  25, 112)'  d='M172.6,72.1 L214.8,72.1 M89.3,54.1 L89.6,54.1 L89.6,66.2 L90.3,66.2 L90.3,78.4 L91.0,78.4
		L91.0,90.5 L92.4,90.5 L92.4,102.6 L95.4,102.6 L95.4,114.8 L97.0,114.8 L97.0,126.9 L98.6,126.9
		L98.6,139.0 L111.1,139.0 L111.1,151.2 L113.8,151.2 L113.8,163.3 L115.6,163.3 L115.6,175.4 L117.2,175.4
		L117.2,187.6 L120.1,187.6 L120.1,199.7 L122.5,199.7 L122.5,211.8 L127.4,211.8 L127.4,224.0 L139.2,224.0
		L139.2,236.1 L143.5,236.1 L143.5,248.2 L156.4,248.2 L156.4,260.4 L162.6,260.4 L162.6,272.5 L205.5,272.5
		L205.5,284.7 L230.9,284.7 L230.9,296.8 L250.5,296.8 L250.5,308.9 L320.9,308.9 L320.9,321.1 L664.7,321.1
		L664.7,333.2 L925.8,333.2 L925.8,345.3  '/></g>
	</g>
	<g id="gnuplot_plot_2" ><title>P:1.0</title>
<g fill="none" color="black" stroke="currentColor" stroke-width="2.00" stroke-linecap="round" stroke-linejoin="round">
	<g transform="translate(323.4,76.6)" stroke="none" fill="black" font-family="serif" font-size="12.00"  text-anchor="start">
		<text><tspan font-family="serif" >P:1.0</tspan></text>
	</g>
</g>
<g fill="none" color="black" stroke="currentColor" stroke-width="2.00" stroke-linecap="round" stroke-linejoin="round">
	<path stroke='rgb(  0, 255, 255)'  d='M272.9,72.1 L315.1,72.1 M90.0,54.1 L90.5,54.1 L90.5,66.2 L91.7,66.2 L91.7,78.4 L92.4,78.4
		L92.4,90.5 L92.8,90.5 L92.8,102.6 L94.1,102.6 L94.1,114.8 L95.0,114.8 L95.0,126.9 L96.5,126.9
		L96.5,139.0 L97.9,139.0 L97.9,151.2 L99.7,151.2 L99.7,163.3 L101.1,163.3 L101.1,175.4 L102.8,175.4
		L102.8,187.6 L108.1,187.6 L108.1,199.7 L110.9,199.7 L110.9,211.8 L113.5,211.8 L113.5,224.0 L119.0,224.0
		L119.0,236.1 L126.7,236.1 L126.7,248.2 L136.9,248.2 L136.9,260.4 L143.1,260.4 L143.1,272.5 L159.4,272.5
		L159.4,284.7 L186.8,284.7 L186.8,296.8 L205.0,296.8 L205.0,308.9 L226.9,308.9 L226.9,321.1 L429.1,321.1
		L429.1,333.2  '/></g>
	</g>
	<g id="gnuplot_plot_3" ><title>P:1.2</title>
<g fill="none" color="black" stroke="currentColor" stroke-width="2.00" stroke-linecap="round" stroke-linejoin="round">
	<g transform="translate(423.7,76.6)" stroke="none" fill="black" font-family="serif" font-size="12.00"  text-anchor="start">
		<text><tspan font-family="serif" >P:1.2</tspan></text>
	</g>
</g>
<g fill="none" color="black" stroke="currentColor" stroke-width="2.00" stroke-linecap="round" stroke-linejoin="round">
	<path stroke='rgb(255,   0,   0)'  d='M373.2,72.1 L415.4,72.1 M90.8,54.1 L91.3,54.1 L91.3,66.2 L91.6,66.2 L91.6,78.4 L92.2,78.4
		L92.2,90.5 L92.9,90.5 L92.9,102.6 L93.5,102.6 L93.5,114.8 L94.4,114.8 L94.4,126.9 L96.2,126.9
		L96.2,139.0 L97.4,139.0 L97.4,151.2 L99.1,151.2 L99.1,163.3 L101.2,163.3 L101.2,175.4 L103.6,175.4
		L103.6,187.6 L106.1,187.6 L106.1,199.7 L109.9,199.7 L109.9,211.8 L112.6,211.8 L112.6,224.0 L117.8,224.0
		L117.8,236.1 L123.1,236.1 L123.1,248.2 L131.8,248.2 L131.8,260.4 L147.9,260.4 L147.9,272.5 L198.1,272.5
		L198.1,284.7 L226.6,284.7 L226.6,296.8 L241.4,296.8 L241.4,308.9 L265.3,308.9 L265.3,321.1 L416.0,321.1
		L416.0,333.2 L469.7,333.2 L469.7,345.3 L711.8,345.3 L711.8,357.5 L790.7,357.5 L790.7,369.6 L900.4,369.6
		L900.4,381.7  '/></g>
	</g>
	<g id="gnuplot_plot_4" ><title>P:1.5</title>
<g fill="none" color="black" stroke="currentColor" stroke-width="2.00" stroke-linecap="round" stroke-linejoin="round">
	<g transform="translate(524.0,76.6)" stroke="none" fill="black" font-family="serif" font-size="12.00"  text-anchor="start">
		<text><tspan font-family="serif" >P:1.5</tspan></text>
	</g>
</g>
<g fill="none" color="black" stroke="currentColor" stroke-width="2.00" stroke-linecap="round" stroke-linejoin="round">
	<path stroke='rgb(255, 182, 193)'  d='M473.5,72.1 L515.7,72.1 M89.8,54.1 L90.5,54.1 L90.5,66.2 L91.2,66.2 L91.2,78.4 L92.0,78.4
		L92.0,90.5 L92.9,90.5 L92.9,102.6 L93.4,102.6 L93.4,114.8 L94.7,114.8 L94.7,126.9 L96.1,126.9
		L96.1,139.0 L97.8,139.0 L97.8,151.2 L99.0,151.2 L99.0,163.3 L101.9,163.3 L101.9,175.4 L105.2,175.4
		L105.2,187.6 L108.3,187.6 L108.3,199.7 L112.7,199.7 L112.7,211.8 L116.1,211.8 L116.1,224.0 L121.3,224.0
		L121.3,236.1 L131.9,236.1 L131.9,248.2 L144.7,248.2 L144.7,260.4 L155.3,260.4 L155.3,272.5 L181.3,272.5
		L181.3,284.7 L195.9,284.7 L195.9,296.8 L217.3,296.8 L217.3,308.9 L254.8,308.9 L254.8,321.1 L293.9,321.1
		L293.9,333.2 L348.0,333.2 L348.0,345.3 L427.8,345.3 L427.8,357.5  '/></g>
	</g>
	<g id="gnuplot_plot_5" ><title>P:2.0</title>
<g fill="none" color="black" stroke="currentColor" stroke-width="2.00" stroke-linecap="round" stroke-linejoin="round">
	<g transform="translate(624.3,76.6)" stroke="none" fill="black" font-family="serif" font-size="12.00"  text-anchor="start">
		<text><tspan font-family="serif" >P:2.0</tspan></text>
	</g>
</g>
<g fill="none" color="black" stroke="currentColor" stroke-width="2.00" stroke-linecap="round" stroke-linejoin="round">
	<path stroke='rgb(  0, 255,   0)'  d='M573.8,72.1 L616.0,72.1 M89.9,54.1 L91.0,54.1 L91.0,66.2 L91.3,66.2 L91.3,78.4 L92.4,78.4
		L92.4,90.5 L93.7,90.5 L93.7,102.6 L94.1,102.6 L94.1,114.8 L95.8,114.8 L95.8,126.9 L97.7,126.9
		L97.7,139.0 L101.2,139.0 L101.2,151.2 L103.4,151.2 L103.4,163.3 L105.4,163.3 L105.4,175.4 L108.9,175.4
		L108.9,187.6 L112.2,187.6 L112.2,199.7 L117.0,199.7 L117.0,211.8 L123.8,211.8 L123.8,224.0 L133.4,224.0
		L133.4,236.1 L144.4,236.1 L144.4,248.2 L162.5,248.2 L162.5,260.4 L177.3,260.4 L177.3,272.5 L201.6,272.5
		L201.6,284.7 L225.2,284.7 L225.2,296.8 L258.3,296.8 L258.3,308.9 L288.7,308.9 L288.7,321.1 L345.9,321.1
		L345.9,333.2 L639.3,333.2 L639.3,345.3 L776.7,345.3 L776.7,357.5  '/></g>
	</g>
	<g id="gnuplot_plot_6" ><title>P:2.5</title>
<g fill="none" color="black" stroke="currentColor" stroke-width="2.00" stroke-linecap="round" stroke-linejoin="round">
	<g transform="translate(724.6,76.6)" stroke="none" fill="black" font-family="serif" font-size="12.00"  text-anchor="start">
		<text><tspan font-family="serif" >P:2.5</tspan></text>
	</g>
</g>
<g fill="none" color="black" stroke="currentColor" stroke-width="2.00" stroke-linecap="round" stroke-linejoin="round">
	<path stroke='rgb(  0, 100,   0)'  d='M674.1,72.1 L716.3,72.1 M90.1,54.1 L91.8,54.1 L91.8,66.2 L92.3,66.2 L92.3,78.4 L93.7,78.4
		L93.7,90.5 L95.1,90.5 L95.1,102.6 L96.6,102.6 L96.6,114.8 L98.5,114.8 L98.5,126.9 L100.3,126.9
		L100.3,139.0 L104.1,139.0 L104.1,151.2 L107.2,151.2 L107.2,163.3 L110.6,163.3 L110.6,175.4 L119.1,175.4
		L119.1,187.6 L129.3,187.6 L129.3,199.7 L138.5,199.7 L138.5,211.8 L147.1,211.8 L147.1,224.0 L158.6,224.0
		L158.6,236.1 L180.5,236.1 L180.5,248.2 L195.6,248.2 L195.6,260.4 L218.8,260.4 L218.8,272.5 L247.6,272.5
		L247.6,284.7 L279.0,284.7 L279.0,296.8 L327.4,296.8 L327.4,308.9 L421.9,308.9 L421.9,321.1 L498.7,321.1
		L498.7,333.2 L598.2,333.2 L598.2,345.3  '/></g>
	</g>
	<g id="gnuplot_plot_7" ><title>P:3.0</title>
<g fill="none" color="black" stroke="currentColor" stroke-width="2.00" stroke-linecap="round" stroke-linejoin="round">
	<g transform="translate(824.9,76.6)" stroke="none" fill="black" font-family="serif" font-size="12.00"  text-anchor="start">
		<text><tspan font-family="serif" >P:3.0</tspan></text>
	</g>
</g>
<g fill="none" color="black" stroke="currentColor" stroke-width="2.00" stroke-linecap="round" stroke-linejoin="round">
	<path stroke='rgb(255,   0, 255)'  d='M774.4,72.1 L816.6,72.1 M89.4,54.1 L89.6,54.1 L89.6,66.2 L90.3,66.2 L90.3,78.4 L91.9,78.4
		L91.9,90.5 L93.8,90.5 L93.8,102.6 L96.2,102.6 L96.2,114.8 L100.6,114.8 L100.6,126.9 L106.8,126.9
		L106.8,139.0 L111.3,139.0 L111.3,151.2 L119.6,151.2 L119.6,163.3 L125.1,163.3 L125.1,175.4 L138.3,175.4
		L138.3,187.6 L153.4,187.6 L153.4,199.7 L175.3,199.7 L175.3,211.8 L200.6,211.8 L200.6,224.0 L227.1,224.0
		L227.1,236.1 L255.0,236.1 L255.0,248.2 L302.6,248.2 L302.6,260.4 L334.2,260.4 L334.2,272.5 L580.5,272.5
		L580.5,284.7 L744.4,284.7 L744.4,296.8 L882.6,296.8 L882.6,308.9  '/></g>
	</g>
	<g id="gnuplot_plot_8" ><title>P:5.0</title>
<g fill="none" color="black" stroke="currentColor" stroke-width="2.00" stroke-linecap="round" stroke-linejoin="round">
	<g transform="translate(925.2,76.6)" stroke="none" fill="black" font-family="serif" font-size="12.00"  text-anchor="start">
		<text><tspan font-family="serif" >P:5.0</tspan></text>
	</g>
</g>
<g fill="none" color="black" stroke="currentColor" stroke-width="2.00" stroke-linecap="round" stroke-linejoin="round">
	<path stroke='rgb(255, 215,   0)'  d='M874.7,72.1 L916.9,72.1 M88.9,54.1 L89.4,54.1 L89.4,66.2 L91.2,66.2 L91.2,78.4 L100.2,78.4
		L100.2,90.5 L104.6,90.5 L104.6,102.6 L118.3,102.6 L118.3,114.8 L130.5,114.8 L130.5,126.9 L142.5,126.9
		L142.5,139.0 L152.6,139.0 L152.6,151.2 L167.9,151.2 L167.9,163.3 L193.4,163.3 L193.4,175.4 L223.3,175.4
		L223.3,187.6 L243.4,187.6 L243.4,199.7 L286.9,199.7 L286.9,211.8 L314.4,211.8 L314.4,224.0 L357.9,224.0
		L357.9,236.1 L433.8,236.1 L433.8,248.2 L507.2,248.2 L507.2,260.4 L546.5,260.4 L546.5,272.5 L614.5,272.5
		L614.5,284.7 L688.6,284.7 L688.6,296.8 L765.5,296.8 L765.5,308.9 L893.1,308.9 L893.1,321.1  '/></g>
	</g>
<g fill="none" color="black" stroke="currentColor" stroke-width="2.00" stroke-linecap="round" stroke-linejoin="round">
</g>
<g fill="none" color="black" stroke="black" stroke-width="1.00" stroke-linecap="round" stroke-linejoin="round">
</g>
<g fill="none" color="black" stroke="currentColor" stroke-width="1.00" stroke-linecap="round" stroke-linejoin="round">
</g>
</g>
</svg>

