<?xml version="1.0" encoding="utf-8"  standalone="no"?>
<!DOCTYPE svg PUBLIC "-//W3C//DTD SVG 1.1//EN"
 "http://www.w3.org/Graphics/SVG/1.1/DTD/svg11.dtd">
<svg 
 width="1000" height="500"
 viewBox="0 0 1000 500"
 xmlns="http://www.w3.org/2000/svg"
 xmlns:xlink="http://www.w3.org/1999/xlink"
>

<title>Gnuplot</title>
<desc>Produced by GNUPLOT 5.0 patchlevel 3 </desc>

<g id="gnuplot_canvas">

<rect x="0" y="0" width="1000" height="500" fill="none"/>
<defs>

	<circle id='gpDot' r='0.5' stroke-width='0.5'/>
	<path id='gpPt0' stroke-width='0.222' stroke='currentColor' d='M-1,0 h2 M0,-1 v2'/>
	<path id='gpPt1' stroke-width='0.222' stroke='currentColor' d='M-1,-1 L1,1 M1,-1 L-1,1'/>
	<path id='gpPt2' stroke-width='0.222' stroke='currentColor' d='M-1,0 L1,0 M0,-1 L0,1 M-1,-1 L1,1 M-1,1 L1,-1'/>
	<rect id='gpPt3' stroke-width='0.222' stroke='currentColor' x='-1' y='-1' width='2' height='2'/>
	<rect id='gpPt4' stroke-width='0.222' stroke='currentColor' fill='currentColor' x='-1' y='-1' width='2' height='2'/>
	<circle id='gpPt5' stroke-width='0.222' stroke='currentColor' cx='0' cy='0' r='1'/>
	<use xlink:href='#gpPt5' id='gpPt6' fill='currentColor' stroke='none'/>
	<path id='gpPt7' stroke-width='0.222' stroke='currentColor' d='M0,-1.33 L-1.33,0.67 L1.33,0.67 z'/>
	<use xlink:href='#gpPt7' id='gpPt8' fill='currentColor' stroke='none'/>
	<use xlink:href='#gpPt7' id='gpPt9' stroke='currentColor' transform='rotate(180)'/>
	<use xlink:href='#gpPt9' id='gpPt10' fill='currentColor' stroke='none'/>
	<use xlink:href='#gpPt3' id='gpPt11' stroke='currentColor' transform='rotate(45)'/>
	<use xlink:href='#gpPt11' id='gpPt12' fill='currentColor' stroke='none'/>
	<path id='gpPt13' stroke-width='0.222' stroke='currentColor' d='M0,1.330 L1.265,0.411 L0.782,-1.067 L-0.782,-1.076 L-1.265,0.411 z'/>
	<use xlink:href='#gpPt13' id='gpPt14' fill='currentColor' stroke='none'/>
	<filter id='textbox' filterUnits='objectBoundingBox' x='0' y='0' height='1' width='1'>
	  <feFlood flood-color='white' flood-opacity='1' result='bgnd'/>
	  <feComposite in='SourceGraphic' in2='bgnd' operator='atop'/>
	</filter>
	<filter id='greybox' filterUnits='objectBoundingBox' x='0' y='0' height='1' width='1'>
	  <feFlood flood-color='lightgrey' flood-opacity='1' result='grey'/>
	  <feComposite in='SourceGraphic' in2='grey' operator='atop'/>
	</filter>
</defs>
<g fill="none" color="white" stroke="currentColor" stroke-width="1.00" stroke-linecap="round" stroke-linejoin="round">
</g>
<g fill="none" color="black" stroke="currentColor" stroke-width="1.00" stroke-linecap="round" stroke-linejoin="round">
</g>
<g fill="none" color="gray" stroke="currentColor" stroke-width="1.00" stroke-linecap="round" stroke-linejoin="round">
	<path stroke='rgb(128, 128, 128)' stroke-dasharray='2,4' class="gridline"  d='M71.9,418.1 L975.0,418.1  '/></g>
<g fill="none" color="black" stroke="currentColor" stroke-width="1.00" stroke-linecap="round" stroke-linejoin="round">
	<path stroke='rgb(128, 128, 128)'  d='M71.9,418.1 L80.9,418.1  '/>	<g transform="translate(63.6,422.6)" stroke="none" fill="rgb(0,0,0)" font-family="serif" font-size="12.00"  text-anchor="end">
		<text><tspan font-family="serif" > 220</tspan></text>
	</g>
</g>
<g fill="none" color="black" stroke="currentColor" stroke-width="1.00" stroke-linecap="round" stroke-linejoin="round">
</g>
<g fill="none" color="gray" stroke="currentColor" stroke-width="1.00" stroke-linecap="round" stroke-linejoin="round">
	<path stroke='rgb(128, 128, 128)' stroke-dasharray='2,4' class="gridline"  d='M71.9,296.8 L975.0,296.8  '/></g>
<g fill="none" color="black" stroke="currentColor" stroke-width="1.00" stroke-linecap="round" stroke-linejoin="round">
	<path stroke='rgb(128, 128, 128)'  d='M71.9,296.8 L80.9,296.8  '/>	<g transform="translate(63.6,301.3)" stroke="none" fill="rgb(0,0,0)" font-family="serif" font-size="12.00"  text-anchor="end">
		<text><tspan font-family="serif" > 230</tspan></text>
	</g>
</g>
<g fill="none" color="black" stroke="currentColor" stroke-width="1.00" stroke-linecap="round" stroke-linejoin="round">
</g>
<g fill="none" color="gray" stroke="currentColor" stroke-width="1.00" stroke-linecap="round" stroke-linejoin="round">
	<path stroke='rgb(128, 128, 128)' stroke-dasharray='2,4' class="gridline"  d='M71.9,175.4 L975.0,175.4  '/></g>
<g fill="none" color="black" stroke="currentColor" stroke-width="1.00" stroke-linecap="round" stroke-linejoin="round">
	<path stroke='rgb(128, 128, 128)'  d='M71.9,175.4 L80.9,175.4  '/>	<g transform="translate(63.6,179.9)" stroke="none" fill="rgb(0,0,0)" font-family="serif" font-size="12.00"  text-anchor="end">
		<text><tspan font-family="serif" > 240</tspan></text>
	</g>
</g>
<g fill="none" color="black" stroke="currentColor" stroke-width="1.00" stroke-linecap="round" stroke-linejoin="round">
</g>
<g fill="none" color="gray" stroke="currentColor" stroke-width="1.00" stroke-linecap="round" stroke-linejoin="round">
	<path stroke='rgb(128, 128, 128)' stroke-dasharray='2,4' class="gridline"  d='M71.9,54.1 L975.0,54.1  '/></g>
<g fill="none" color="black" stroke="currentColor" stroke-width="1.00" stroke-linecap="round" stroke-linejoin="round">
	<path stroke='rgb(128, 128, 128)'  d='M71.9,54.1 L80.9,54.1  '/>	<g transform="translate(63.6,58.6)" stroke="none" fill="rgb(0,0,0)" font-family="serif" font-size="12.00"  text-anchor="end">
		<text><tspan font-family="serif" > 250</tspan></text>
	</g>
</g>
<g fill="none" color="black" stroke="currentColor" stroke-width="1.00" stroke-linecap="round" stroke-linejoin="round">
</g>
<g fill="none" color="gray" stroke="currentColor" stroke-width="1.00" stroke-linecap="round" stroke-linejoin="round">
	<path stroke='rgb(128, 128, 128)' stroke-dasharray='2,4' class="gridline"  d='M71.9,442.4 L71.9,54.1  '/></g>
<g fill="none" color="black" stroke="currentColor" stroke-width="1.00" stroke-linecap="round" stroke-linejoin="round">
	<path stroke='rgb(128, 128, 128)'  d='M71.9,442.4 L71.9,433.4  '/>	<g transform="translate(71.9,464.9)" stroke="none" fill="rgb(0,0,0)" font-family="serif" font-size="12.00"  text-anchor="middle">
		<text><tspan font-family="serif" > 0</tspan></text>
	</g>
</g>
<g fill="none" color="black" stroke="currentColor" stroke-width="1.00" stroke-linecap="round" stroke-linejoin="round">
</g>
<g fill="none" color="gray" stroke="currentColor" stroke-width="1.00" stroke-linecap="round" stroke-linejoin="round">
	<path stroke='rgb(128, 128, 128)' stroke-dasharray='2,4' class="gridline"  d='M975.0,442.4 L975.0,54.1  '/></g>
<g fill="none" color="black" stroke="currentColor" stroke-width="1.00" stroke-linecap="round" stroke-linejoin="round">
	<path stroke='rgb(128, 128, 128)'  d='M975.0,442.4 L975.0,433.4  '/>	<g transform="translate(975.0,464.9)" stroke="none" fill="rgb(0,0,0)" font-family="serif" font-size="12.00"  text-anchor="middle">
		<text><tspan font-family="serif" > 1</tspan></text>
	</g>
</g>
<g fill="none" color="black" stroke="currentColor" stroke-width="1.00" stroke-linecap="round" stroke-linejoin="round">
</g>
<g fill="none" color="black" stroke="currentColor" stroke-width="1.00" stroke-linecap="round" stroke-linejoin="round">
	<path stroke='rgb(128, 128, 128)'  d='M71.9,54.1 L71.9,442.4 L975.0,442.4 M975.0,54.1 M71.9,54.1  '/></g>
<g fill="none" color="black" stroke="currentColor" stroke-width="1.00" stroke-linecap="round" stroke-linejoin="round">
	<g transform="translate(17.6,248.3) rotate(270)" stroke="none" fill="black" font-family="serif" font-size="12.00"  text-anchor="middle">
		<text><tspan font-family="serif" >Number of colors</tspan></text>
	</g>
</g>
<g fill="none" color="black" stroke="currentColor" stroke-width="1.00" stroke-linecap="round" stroke-linejoin="round">
	<g transform="translate(523.4,491.9)" stroke="none" fill="black" font-family="serif" font-size="12.00"  text-anchor="middle">
		<text><tspan font-family="serif" >Running time (cpu hours)</tspan></text>
	</g>
</g>
<g fill="none" color="black" stroke="currentColor" stroke-width="1.00" stroke-linecap="round" stroke-linejoin="round">
	<g transform="translate(523.4,31.6)" stroke="none" fill="black" font-family="serif" font-size="12.00"  text-anchor="middle">
		<text><tspan font-family="serif" >Number of colors over time (no dfs)</tspan></text>
	</g>
</g>
<g fill="none" color="black" stroke="currentColor" stroke-width="1.00" stroke-linecap="round" stroke-linejoin="round">
	<path stroke='rgb(128, 128, 128)'  d='M97.9,81.1 L97.9,63.1 L966.7,63.1 L966.7,81.1 L97.9,81.1 Z  '/></g>
	<g id="gnuplot_plot_1" ><title>V:0.00</title>
<g fill="none" color="white" stroke="rgb(128, 128, 128)" stroke-width="2.00" stroke-linecap="round" stroke-linejoin="round">
</g>
<g fill="none" color="black" stroke="currentColor" stroke-width="2.00" stroke-linecap="round" stroke-linejoin="round">
	<g transform="translate(156.7,76.6)" stroke="none" fill="black" font-family="serif" font-size="12.00"  text-anchor="start">
		<text><tspan font-family="serif" >V:0.00</tspan></text>
	</g>
</g>
<g fill="none" color="black" stroke="currentColor" stroke-width="2.00" stroke-linecap="round" stroke-linejoin="round">
	<path stroke='rgb( 25,  25, 112)'  d='M106.2,72.1 L148.4,72.1 M154.3,54.1 L155.4,54.1 L155.4,66.2 L156.6,66.2 L156.6,78.4 L157.8,78.4
		L157.8,90.5 L159.0,90.5 L159.0,102.6 L160.2,102.6 L160.2,114.8 L161.5,114.8 L161.5,126.9 L162.8,126.9
		L162.8,139.0 L164.2,139.0 L164.2,151.2 L165.7,151.2 L165.7,163.3 L167.2,163.3 L167.2,175.4 L168.8,175.4
		L168.8,187.6 L170.5,187.6 L170.5,199.7 L172.4,199.7 L172.4,211.8 L174.3,211.8 L174.3,224.0 L177.2,224.0
		L177.2,236.1 L179.9,236.1 L179.9,248.2 L183.0,248.2 L183.0,260.4 L185.9,260.4 L185.9,272.5 L195.0,272.5
		L195.0,284.7 L205.2,284.7 L205.2,296.8 L236.3,296.8 L236.3,308.9  '/></g>
	</g>
	<g id="gnuplot_plot_2" ><title>V:0.05</title>
<g fill="none" color="black" stroke="currentColor" stroke-width="2.00" stroke-linecap="round" stroke-linejoin="round">
	<g transform="translate(265.3,76.6)" stroke="none" fill="black" font-family="serif" font-size="12.00"  text-anchor="start">
		<text><tspan font-family="serif" >V:0.05</tspan></text>
	</g>
</g>
<g fill="none" color="black" stroke="currentColor" stroke-width="2.00" stroke-linecap="round" stroke-linejoin="round">
	<path stroke='rgb(  0, 255, 255)'  d='M214.8,72.1 L257.0,72.1 M155.2,54.1 L156.4,54.1 L156.4,66.2 L157.6,66.2 L157.6,78.4 L158.8,78.4
		L158.8,90.5 L160.0,90.5 L160.0,102.6 L161.2,102.6 L161.2,114.8 L162.5,114.8 L162.5,126.9 L163.9,126.9
		L163.9,139.0 L165.3,139.0 L165.3,151.2 L166.8,151.2 L166.8,163.3 L168.3,163.3 L168.3,175.4 L169.9,175.4
		L169.9,187.6 L171.6,187.6 L171.6,199.7 L173.4,199.7 L173.4,211.8 L175.1,211.8 L175.1,224.0 L177.1,224.0
		L177.1,236.1 L179.9,236.1 L179.9,248.2 L182.8,248.2 L182.8,260.4 L186.3,260.4 L186.3,272.5 L190.4,272.5
		L190.4,284.7 L196.2,284.7 L196.2,296.8 L210.7,296.8 L210.7,308.9 L222.8,308.9 L222.8,321.1 L253.8,321.1
		L253.8,333.2 L328.3,333.2 L328.3,345.3 L400.7,345.3 L400.7,357.5 L975.0,357.5  '/></g>
	</g>
	<g id="gnuplot_plot_3" ><title>V:0.10</title>
<g fill="none" color="black" stroke="currentColor" stroke-width="2.00" stroke-linecap="round" stroke-linejoin="round">
	<g transform="translate(373.9,76.6)" stroke="none" fill="black" font-family="serif" font-size="12.00"  text-anchor="start">
		<text><tspan font-family="serif" >V:0.10</tspan></text>
	</g>
</g>
<g fill="none" color="black" stroke="currentColor" stroke-width="2.00" stroke-linecap="round" stroke-linejoin="round">
	<path stroke='rgb(255,   0,   0)'  d='M323.4,72.1 L365.6,72.1 M154.2,54.1 L155.4,54.1 L155.4,66.2 L156.6,66.2 L156.6,78.4 L157.7,78.4
		L157.7,90.5 L158.9,90.5 L158.9,102.6 L160.3,102.6 L160.3,114.8 L161.6,114.8 L161.6,126.9 L162.9,126.9
		L162.9,139.0 L164.4,139.0 L164.4,151.2 L165.8,151.2 L165.8,163.3 L167.4,163.3 L167.4,175.4 L169.0,175.4
		L169.0,187.6 L170.6,187.6 L170.6,199.7 L172.5,199.7 L172.5,211.8 L174.3,211.8 L174.3,224.0 L176.7,224.0
		L176.7,236.1 L179.1,236.1 L179.1,248.2 L181.7,248.2 L181.7,260.4 L185.6,260.4 L185.6,272.5 L189.0,272.5
		L189.0,284.7 L194.1,284.7 L194.1,296.8 L201.7,296.8 L201.7,308.9 L209.4,308.9 L209.4,321.1 L221.1,321.1
		L221.1,333.2 L240.3,333.2 L240.3,345.3 L273.3,345.3 L273.3,357.5 L310.7,357.5 L310.7,369.6 L599.3,369.6
		L599.3,381.7 L975.0,381.7  '/></g>
	</g>
	<g id="gnuplot_plot_4" ><title>V:0.15</title>
<g fill="none" color="black" stroke="currentColor" stroke-width="2.00" stroke-linecap="round" stroke-linejoin="round">
	<g transform="translate(482.5,76.6)" stroke="none" fill="black" font-family="serif" font-size="12.00"  text-anchor="start">
		<text><tspan font-family="serif" >V:0.15</tspan></text>
	</g>
</g>
<g fill="none" color="black" stroke="currentColor" stroke-width="2.00" stroke-linecap="round" stroke-linejoin="round">
	<path stroke='rgb(255, 182, 193)'  d='M432.0,72.1 L474.2,72.1 M155.7,54.1 L156.8,54.1 L156.8,66.2 L158.0,66.2 L158.0,78.4 L159.3,78.4
		L159.3,90.5 L160.6,90.5 L160.6,102.6 L161.9,102.6 L161.9,114.8 L163.3,114.8 L163.3,126.9 L164.7,126.9
		L164.7,139.0 L166.2,139.0 L166.2,151.2 L167.8,151.2 L167.8,163.3 L169.5,163.3 L169.5,175.4 L171.6,175.4
		L171.6,187.6 L173.3,187.6 L173.3,199.7 L175.4,199.7 L175.4,211.8 L177.5,211.8 L177.5,224.0 L179.6,224.0
		L179.6,236.1 L182.2,236.1 L182.2,248.2 L184.8,248.2 L184.8,260.4 L188.1,260.4 L188.1,272.5 L193.2,272.5
		L193.2,284.7 L200.4,284.7 L200.4,296.8 L206.4,296.8 L206.4,308.9 L216.2,308.9 L216.2,321.1 L225.9,321.1
		L225.9,333.2 L238.8,333.2 L238.8,345.3 L267.1,345.3 L267.1,357.5 L292.2,357.5 L292.2,369.6 L347.9,369.6
		L347.9,381.7 L430.4,381.7 L430.4,393.9 L740.3,393.9 L740.3,406.0 L975.0,406.0  '/></g>
	</g>
	<g id="gnuplot_plot_5" ><title>V:0.20</title>
<g fill="none" color="black" stroke="currentColor" stroke-width="2.00" stroke-linecap="round" stroke-linejoin="round">
	<g transform="translate(591.1,76.6)" stroke="none" fill="black" font-family="serif" font-size="12.00"  text-anchor="start">
		<text><tspan font-family="serif" >V:0.20</tspan></text>
	</g>
</g>
<g fill="none" color="black" stroke="currentColor" stroke-width="2.00" stroke-linecap="round" stroke-linejoin="round">
	<path stroke='rgb(  0, 255,   0)'  d='M540.6,72.1 L582.8,72.1 M156.9,54.1 L158.3,54.1 L158.3,66.2 L159.7,66.2 L159.7,78.4 L161.1,78.4
		L161.1,90.5 L162.6,90.5 L162.6,102.6 L164.2,102.6 L164.2,114.8 L166.0,114.8 L166.0,126.9 L167.9,126.9
		L167.9,139.0 L169.9,139.0 L169.9,151.2 L172.2,151.2 L172.2,163.3 L174.3,163.3 L174.3,175.4 L176.6,175.4
		L176.6,187.6 L179.0,187.6 L179.0,199.7 L181.6,199.7 L181.6,211.8 L184.7,211.8 L184.7,224.0 L187.8,224.0
		L187.8,236.1 L190.9,236.1 L190.9,248.2 L196.1,248.2 L196.1,260.4 L201.9,260.4 L201.9,272.5 L209.1,272.5
		L209.1,284.7 L219.0,284.7 L219.0,296.8 L228.0,296.8 L228.0,308.9 L242.7,308.9 L242.7,321.1 L262.2,321.1
		L262.2,333.2 L312.6,333.2 L312.6,345.3 L352.4,345.3 L352.4,357.5 L432.5,357.5 L432.5,369.6 L627.0,369.6
		L627.0,381.7 L975.0,381.7  '/></g>
	</g>
	<g id="gnuplot_plot_6" ><title>V:0.25</title>
<g fill="none" color="black" stroke="currentColor" stroke-width="2.00" stroke-linecap="round" stroke-linejoin="round">
	<g transform="translate(699.7,76.6)" stroke="none" fill="black" font-family="serif" font-size="12.00"  text-anchor="start">
		<text><tspan font-family="serif" >V:0.25</tspan></text>
	</g>
</g>
<g fill="none" color="black" stroke="currentColor" stroke-width="2.00" stroke-linecap="round" stroke-linejoin="round">
	<path stroke='rgb(  0, 100,   0)'  d='M649.2,72.1 L691.4,72.1 M189.8,54.1 L195.5,54.1 L195.5,66.2 L201.1,66.2 L201.1,78.4 L208.0,78.4
		L208.0,90.5 L218.4,90.5 L218.4,102.6 L230.6,102.6 L230.6,114.8 L249.2,114.8 L249.2,126.9 L284.8,126.9
		L284.8,139.0 L348.6,139.0 L348.6,151.2 L688.6,151.2 L688.6,163.3 L975.0,163.3  '/></g>
	</g>
	<g id="gnuplot_plot_7" ><title>V:0.30</title>
<g fill="none" color="black" stroke="currentColor" stroke-width="2.00" stroke-linecap="round" stroke-linejoin="round">
	<g transform="translate(808.3,76.6)" stroke="none" fill="black" font-family="serif" font-size="12.00"  text-anchor="start">
		<text><tspan font-family="serif" >V:0.30</tspan></text>
	</g>
</g>
<g fill="none" color="black" stroke="currentColor" stroke-width="2.00" stroke-linecap="round" stroke-linejoin="round">
	<path stroke='rgb(255,   0, 255)'  d='M757.8,72.1 L800.0,72.1  '/></g>
	</g>
	<g id="gnuplot_plot_8" ><title>V:0.35</title>
<g fill="none" color="black" stroke="currentColor" stroke-width="2.00" stroke-linecap="round" stroke-linejoin="round">
	<g transform="translate(916.9,76.6)" stroke="none" fill="black" font-family="serif" font-size="12.00"  text-anchor="start">
		<text><tspan font-family="serif" >V:0.35</tspan></text>
	</g>
</g>
<g fill="none" color="black" stroke="currentColor" stroke-width="2.00" stroke-linecap="round" stroke-linejoin="round">
	<path stroke='rgb(255, 215,   0)'  d='M866.4,72.1 L908.6,72.1  '/></g>
	</g>
<g fill="none" color="black" stroke="currentColor" stroke-width="2.00" stroke-linecap="round" stroke-linejoin="round">
</g>
<g fill="none" color="black" stroke="black" stroke-width="1.00" stroke-linecap="round" stroke-linejoin="round">
</g>
<g fill="none" color="black" stroke="currentColor" stroke-width="1.00" stroke-linecap="round" stroke-linejoin="round">
</g>
</g>
</svg>

