<?xml version="1.0" encoding="utf-8"  standalone="no"?>
<!DOCTYPE svg PUBLIC "-//W3C//DTD SVG 1.1//EN"
 "http://www.w3.org/Graphics/SVG/1.1/DTD/svg11.dtd">
<svg 
 width="1000" height="500"
 viewBox="0 0 1000 500"
 xmlns="http://www.w3.org/2000/svg"
 xmlns:xlink="http://www.w3.org/1999/xlink"
>

<title>Gnuplot</title>
<desc>Produced by GNUPLOT 5.0 patchlevel 3 </desc>

<g id="gnuplot_canvas">

<rect x="0" y="0" width="1000" height="500" fill="none"/>
<defs>

	<circle id='gpDot' r='0.5' stroke-width='0.5'/>
	<path id='gpPt0' stroke-width='0.222' stroke='currentColor' d='M-1,0 h2 M0,-1 v2'/>
	<path id='gpPt1' stroke-width='0.222' stroke='currentColor' d='M-1,-1 L1,1 M1,-1 L-1,1'/>
	<path id='gpPt2' stroke-width='0.222' stroke='currentColor' d='M-1,0 L1,0 M0,-1 L0,1 M-1,-1 L1,1 M-1,1 L1,-1'/>
	<rect id='gpPt3' stroke-width='0.222' stroke='currentColor' x='-1' y='-1' width='2' height='2'/>
	<rect id='gpPt4' stroke-width='0.222' stroke='currentColor' fill='currentColor' x='-1' y='-1' width='2' height='2'/>
	<circle id='gpPt5' stroke-width='0.222' stroke='currentColor' cx='0' cy='0' r='1'/>
	<use xlink:href='#gpPt5' id='gpPt6' fill='currentColor' stroke='none'/>
	<path id='gpPt7' stroke-width='0.222' stroke='currentColor' d='M0,-1.33 L-1.33,0.67 L1.33,0.67 z'/>
	<use xlink:href='#gpPt7' id='gpPt8' fill='currentColor' stroke='none'/>
	<use xlink:href='#gpPt7' id='gpPt9' stroke='currentColor' transform='rotate(180)'/>
	<use xlink:href='#gpPt9' id='gpPt10' fill='currentColor' stroke='none'/>
	<use xlink:href='#gpPt3' id='gpPt11' stroke='currentColor' transform='rotate(45)'/>
	<use xlink:href='#gpPt11' id='gpPt12' fill='currentColor' stroke='none'/>
	<path id='gpPt13' stroke-width='0.222' stroke='currentColor' d='M0,1.330 L1.265,0.411 L0.782,-1.067 L-0.782,-1.076 L-1.265,0.411 z'/>
	<use xlink:href='#gpPt13' id='gpPt14' fill='currentColor' stroke='none'/>
	<filter id='textbox' filterUnits='objectBoundingBox' x='0' y='0' height='1' width='1'>
	  <feFlood flood-color='white' flood-opacity='1' result='bgnd'/>
	  <feComposite in='SourceGraphic' in2='bgnd' operator='atop'/>
	</filter>
	<filter id='greybox' filterUnits='objectBoundingBox' x='0' y='0' height='1' width='1'>
	  <feFlood flood-color='lightgrey' flood-opacity='1' result='grey'/>
	  <feComposite in='SourceGraphic' in2='grey' operator='atop'/>
	</filter>
</defs>
<g fill="none" color="white" stroke="currentColor" stroke-width="1.00" stroke-linecap="round" stroke-linejoin="round">
</g>
<g fill="none" color="black" stroke="currentColor" stroke-width="1.00" stroke-linecap="round" stroke-linejoin="round">
</g>
<g fill="none" color="gray" stroke="currentColor" stroke-width="1.00" stroke-linecap="round" stroke-linejoin="round">
	<path stroke='rgb(128, 128, 128)' stroke-dasharray='2,4' class="gridline"  d='M71.9,418.1 L975.0,418.1  '/></g>
<g fill="none" color="black" stroke="currentColor" stroke-width="1.00" stroke-linecap="round" stroke-linejoin="round">
	<path stroke='rgb(128, 128, 128)'  d='M71.9,418.1 L80.9,418.1  '/>	<g transform="translate(63.6,422.6)" stroke="none" fill="rgb(0,0,0)" font-family="serif" font-size="12.00"  text-anchor="end">
		<text><tspan font-family="serif" > 220</tspan></text>
	</g>
</g>
<g fill="none" color="black" stroke="currentColor" stroke-width="1.00" stroke-linecap="round" stroke-linejoin="round">
</g>
<g fill="none" color="gray" stroke="currentColor" stroke-width="1.00" stroke-linecap="round" stroke-linejoin="round">
	<path stroke='rgb(128, 128, 128)' stroke-dasharray='2,4' class="gridline"  d='M71.9,296.8 L975.0,296.8  '/></g>
<g fill="none" color="black" stroke="currentColor" stroke-width="1.00" stroke-linecap="round" stroke-linejoin="round">
	<path stroke='rgb(128, 128, 128)'  d='M71.9,296.8 L80.9,296.8  '/>	<g transform="translate(63.6,301.3)" stroke="none" fill="rgb(0,0,0)" font-family="serif" font-size="12.00"  text-anchor="end">
		<text><tspan font-family="serif" > 230</tspan></text>
	</g>
</g>
<g fill="none" color="black" stroke="currentColor" stroke-width="1.00" stroke-linecap="round" stroke-linejoin="round">
</g>
<g fill="none" color="gray" stroke="currentColor" stroke-width="1.00" stroke-linecap="round" stroke-linejoin="round">
	<path stroke='rgb(128, 128, 128)' stroke-dasharray='2,4' class="gridline"  d='M71.9,175.4 L975.0,175.4  '/></g>
<g fill="none" color="black" stroke="currentColor" stroke-width="1.00" stroke-linecap="round" stroke-linejoin="round">
	<path stroke='rgb(128, 128, 128)'  d='M71.9,175.4 L80.9,175.4  '/>	<g transform="translate(63.6,179.9)" stroke="none" fill="rgb(0,0,0)" font-family="serif" font-size="12.00"  text-anchor="end">
		<text><tspan font-family="serif" > 240</tspan></text>
	</g>
</g>
<g fill="none" color="black" stroke="currentColor" stroke-width="1.00" stroke-linecap="round" stroke-linejoin="round">
</g>
<g fill="none" color="gray" stroke="currentColor" stroke-width="1.00" stroke-linecap="round" stroke-linejoin="round">
	<path stroke='rgb(128, 128, 128)' stroke-dasharray='2,4' class="gridline"  d='M71.9,54.1 L975.0,54.1  '/></g>
<g fill="none" color="black" stroke="currentColor" stroke-width="1.00" stroke-linecap="round" stroke-linejoin="round">
	<path stroke='rgb(128, 128, 128)'  d='M71.9,54.1 L80.9,54.1  '/>	<g transform="translate(63.6,58.6)" stroke="none" fill="rgb(0,0,0)" font-family="serif" font-size="12.00"  text-anchor="end">
		<text><tspan font-family="serif" > 250</tspan></text>
	</g>
</g>
<g fill="none" color="black" stroke="currentColor" stroke-width="1.00" stroke-linecap="round" stroke-linejoin="round">
</g>
<g fill="none" color="gray" stroke="currentColor" stroke-width="1.00" stroke-linecap="round" stroke-linejoin="round">
	<path stroke='rgb(128, 128, 128)' stroke-dasharray='2,4' class="gridline"  d='M71.9,442.4 L71.9,54.1  '/></g>
<g fill="none" color="black" stroke="currentColor" stroke-width="1.00" stroke-linecap="round" stroke-linejoin="round">
	<path stroke='rgb(128, 128, 128)'  d='M71.9,442.4 L71.9,433.4  '/>	<g transform="translate(71.9,464.9)" stroke="none" fill="rgb(0,0,0)" font-family="serif" font-size="12.00"  text-anchor="middle">
		<text><tspan font-family="serif" > 0</tspan></text>
	</g>
</g>
<g fill="none" color="black" stroke="currentColor" stroke-width="1.00" stroke-linecap="round" stroke-linejoin="round">
</g>
<g fill="none" color="gray" stroke="currentColor" stroke-width="1.00" stroke-linecap="round" stroke-linejoin="round">
	<path stroke='rgb(128, 128, 128)' stroke-dasharray='2,4' class="gridline"  d='M975.0,442.4 L975.0,54.1  '/></g>
<g fill="none" color="black" stroke="currentColor" stroke-width="1.00" stroke-linecap="round" stroke-linejoin="round">
	<path stroke='rgb(128, 128, 128)'  d='M975.0,442.4 L975.0,433.4  '/>	<g transform="translate(975.0,464.9)" stroke="none" fill="rgb(0,0,0)" font-family="serif" font-size="12.00"  text-anchor="middle">
		<text><tspan font-family="serif" > 1</tspan></text>
	</g>
</g>
<g fill="none" color="black" stroke="currentColor" stroke-width="1.00" stroke-linecap="round" stroke-linejoin="round">
</g>
<g fill="none" color="black" stroke="currentColor" stroke-width="1.00" stroke-linecap="round" stroke-linejoin="round">
	<path stroke='rgb(128, 128, 128)'  d='M71.9,54.1 L71.9,442.4 L975.0,442.4 M975.0,54.1 M71.9,54.1  '/></g>
<g fill="none" color="black" stroke="currentColor" stroke-width="1.00" stroke-linecap="round" stroke-linejoin="round">
	<g transform="translate(17.6,248.3) rotate(270)" stroke="none" fill="black" font-family="serif" font-size="12.00"  text-anchor="middle">
		<text><tspan font-family="serif" >Number of colors</tspan></text>
	</g>
</g>
<g fill="none" color="black" stroke="currentColor" stroke-width="1.00" stroke-linecap="round" stroke-linejoin="round">
	<g transform="translate(523.4,491.9)" stroke="none" fill="black" font-family="serif" font-size="12.00"  text-anchor="middle">
		<text><tspan font-family="serif" >Running time (cpu hours)</tspan></text>
	</g>
</g>
<g fill="none" color="black" stroke="currentColor" stroke-width="1.00" stroke-linecap="round" stroke-linejoin="round">
	<g transform="translate(523.4,31.6)" stroke="none" fill="black" font-family="serif" font-size="12.00"  text-anchor="middle">
		<text><tspan font-family="serif" >Number of colors over time (no info)</tspan></text>
	</g>
</g>
<g fill="none" color="black" stroke="currentColor" stroke-width="1.00" stroke-linecap="round" stroke-linejoin="round">
	<path stroke='rgb(128, 128, 128)'  d='M97.9,81.1 L97.9,63.1 L966.7,63.1 L966.7,81.1 L97.9,81.1 Z  '/></g>
	<g id="gnuplot_plot_1" ><title>V:0.00</title>
<g fill="none" color="white" stroke="rgb(128, 128, 128)" stroke-width="2.00" stroke-linecap="round" stroke-linejoin="round">
</g>
<g fill="none" color="black" stroke="currentColor" stroke-width="2.00" stroke-linecap="round" stroke-linejoin="round">
	<g transform="translate(156.7,76.6)" stroke="none" fill="black" font-family="serif" font-size="12.00"  text-anchor="start">
		<text><tspan font-family="serif" >V:0.00</tspan></text>
	</g>
</g>
<g fill="none" color="black" stroke="currentColor" stroke-width="2.00" stroke-linecap="round" stroke-linejoin="round">
	<path stroke='rgb( 25,  25, 112)'  d='M106.2,72.1 L148.4,72.1 M160.6,54.1 L162.3,54.1 L162.3,66.2 L165.4,66.2 L165.4,78.4 L169.2,78.4
		L169.2,90.5 L172.5,90.5 L172.5,102.6 L177.6,102.6 L177.6,114.8 L184.9,114.8 L184.9,126.9 L192.5,126.9
		L192.5,139.0 L204.8,139.0 L204.8,151.2 L213.8,151.2 L213.8,163.3 L225.6,163.3 L225.6,175.4 L233.5,175.4
		L233.5,187.6 L241.3,187.6 L241.3,199.7 L381.2,199.7 L381.2,211.8 L405.8,211.8 L405.8,224.0 L436.6,224.0
		L436.6,236.1 L464.9,236.1 L464.9,248.2 L507.9,248.2 L507.9,260.4 L556.9,260.4 L556.9,272.5 L613.2,272.5
		L613.2,284.7 L719.0,284.7 L719.0,296.8 L800.1,296.8 L800.1,308.9 L975.0,308.9  '/></g>
	</g>
	<g id="gnuplot_plot_2" ><title>V:0.05</title>
<g fill="none" color="black" stroke="currentColor" stroke-width="2.00" stroke-linecap="round" stroke-linejoin="round">
	<g transform="translate(265.3,76.6)" stroke="none" fill="black" font-family="serif" font-size="12.00"  text-anchor="start">
		<text><tspan font-family="serif" >V:0.05</tspan></text>
	</g>
</g>
<g fill="none" color="black" stroke="currentColor" stroke-width="2.00" stroke-linecap="round" stroke-linejoin="round">
	<path stroke='rgb(  0, 255, 255)'  d='M214.8,72.1 L257.0,72.1 M165.3,54.1 L169.0,54.1 L169.0,66.2 L173.2,66.2 L173.2,78.4 L177.8,78.4
		L177.8,90.5 L187.2,90.5 L187.2,102.6 L194.4,102.6 L194.4,114.8 L200.6,114.8 L200.6,126.9 L208.9,126.9
		L208.9,139.0 L215.6,139.0 L215.6,151.2 L237.2,151.2 L237.2,163.3 L244.4,163.3 L244.4,175.4 L252.3,175.4
		L252.3,187.6 L264.8,187.6 L264.8,199.7 L279.2,199.7 L279.2,211.8 L296.5,211.8 L296.5,224.0 L325.6,224.0
		L325.6,236.1 L352.4,236.1 L352.4,248.2 L398.7,248.2 L398.7,260.4 L431.9,260.4 L431.9,272.5 L479.6,272.5
		L479.6,284.7 L524.3,284.7 L524.3,296.8 L597.6,296.8 L597.6,308.9 L703.7,308.9 L703.7,321.1 L975.0,321.1
		 '/></g>
	</g>
	<g id="gnuplot_plot_3" ><title>V:0.10</title>
<g fill="none" color="black" stroke="currentColor" stroke-width="2.00" stroke-linecap="round" stroke-linejoin="round">
	<g transform="translate(373.9,76.6)" stroke="none" fill="black" font-family="serif" font-size="12.00"  text-anchor="start">
		<text><tspan font-family="serif" >V:0.10</tspan></text>
	</g>
</g>
<g fill="none" color="black" stroke="currentColor" stroke-width="2.00" stroke-linecap="round" stroke-linejoin="round">
	<path stroke='rgb(255,   0,   0)'  d='M323.4,72.1 L365.6,72.1 M163.8,54.1 L165.0,54.1 L165.0,66.2 L167.5,66.2 L167.5,78.4 L170.3,78.4
		L170.3,90.5 L173.1,90.5 L173.1,102.6 L178.0,102.6 L178.0,114.8 L182.7,114.8 L182.7,126.9 L188.4,126.9
		L188.4,139.0 L194.3,139.0 L194.3,151.2 L201.6,151.2 L201.6,163.3 L215.6,163.3 L215.6,175.4 L227.6,175.4
		L227.6,187.6 L239.1,187.6 L239.1,199.7 L251.3,199.7 L251.3,211.8 L272.9,211.8 L272.9,224.0 L297.4,224.0
		L297.4,236.1 L328.5,236.1 L328.5,248.2 L361.4,248.2 L361.4,260.4 L399.1,260.4 L399.1,272.5 L434.1,272.5
		L434.1,284.7 L584.1,284.7 L584.1,296.8 L645.0,296.8 L645.0,308.9 L914.3,308.9 L914.3,321.1 L975.0,321.1
		 '/></g>
	</g>
	<g id="gnuplot_plot_4" ><title>V:0.15</title>
<g fill="none" color="black" stroke="currentColor" stroke-width="2.00" stroke-linecap="round" stroke-linejoin="round">
	<g transform="translate(482.5,76.6)" stroke="none" fill="black" font-family="serif" font-size="12.00"  text-anchor="start">
		<text><tspan font-family="serif" >V:0.15</tspan></text>
	</g>
</g>
<g fill="none" color="black" stroke="currentColor" stroke-width="2.00" stroke-linecap="round" stroke-linejoin="round">
	<path stroke='rgb(255, 182, 193)'  d='M432.0,72.1 L474.2,72.1 M161.5,54.1 L163.6,54.1 L163.6,66.2 L164.9,66.2 L164.9,78.4 L168.9,78.4
		L168.9,90.5 L173.0,90.5 L173.0,102.6 L176.2,102.6 L176.2,114.8 L183.6,114.8 L183.6,126.9 L189.2,126.9
		L189.2,139.0 L194.1,139.0 L194.1,151.2 L205.8,151.2 L205.8,163.3 L214.3,163.3 L214.3,175.4 L225.8,175.4
		L225.8,187.6 L238.5,187.6 L238.5,199.7 L255.5,199.7 L255.5,211.8 L273.7,211.8 L273.7,224.0 L297.7,224.0
		L297.7,236.1 L320.9,236.1 L320.9,248.2 L400.9,248.2 L400.9,260.4 L448.6,260.4 L448.6,272.5 L555.1,272.5
		L555.1,284.7 L645.1,284.7 L645.1,296.8 L729.0,296.8 L729.0,308.9 L975.0,308.9  '/></g>
	</g>
	<g id="gnuplot_plot_5" ><title>V:0.20</title>
<g fill="none" color="black" stroke="currentColor" stroke-width="2.00" stroke-linecap="round" stroke-linejoin="round">
	<g transform="translate(591.1,76.6)" stroke="none" fill="black" font-family="serif" font-size="12.00"  text-anchor="start">
		<text><tspan font-family="serif" >V:0.20</tspan></text>
	</g>
</g>
<g fill="none" color="black" stroke="currentColor" stroke-width="2.00" stroke-linecap="round" stroke-linejoin="round">
	<path stroke='rgb(  0, 255,   0)'  d='M540.6,72.1 L582.8,72.1 M163.0,54.1 L166.4,54.1 L166.4,66.2 L170.8,66.2 L170.8,78.4 L172.4,78.4
		L172.4,90.5 L177.9,90.5 L177.9,102.6 L182.5,102.6 L182.5,114.8 L187.9,114.8 L187.9,126.9 L194.8,126.9
		L194.8,139.0 L203.1,139.0 L203.1,151.2 L215.4,151.2 L215.4,163.3 L231.9,163.3 L231.9,175.4 L245.2,175.4
		L245.2,187.6 L267.4,187.6 L267.4,199.7 L296.1,199.7 L296.1,211.8 L324.9,211.8 L324.9,224.0 L359.9,224.0
		L359.9,236.1 L401.7,236.1 L401.7,248.2 L464.1,248.2 L464.1,260.4 L540.0,260.4 L540.0,272.5 L688.0,272.5
		L688.0,284.7 L766.5,284.7 L766.5,296.8 L975.0,296.8  '/></g>
	</g>
	<g id="gnuplot_plot_6" ><title>V:0.25</title>
<g fill="none" color="black" stroke="currentColor" stroke-width="2.00" stroke-linecap="round" stroke-linejoin="round">
	<g transform="translate(699.7,76.6)" stroke="none" fill="black" font-family="serif" font-size="12.00"  text-anchor="start">
		<text><tspan font-family="serif" >V:0.25</tspan></text>
	</g>
</g>
<g fill="none" color="black" stroke="currentColor" stroke-width="2.00" stroke-linecap="round" stroke-linejoin="round">
	<path stroke='rgb(  0, 100,   0)'  d='M649.2,72.1 L691.4,72.1 M166.2,54.1 L177.5,54.1 L177.5,66.2 L195.8,66.2 L195.8,78.4 L196.9,78.4
		L196.9,90.5 L239.5,90.5 L239.5,102.6 L267.8,102.6 L267.8,114.8 L311.7,114.8 L311.7,126.9 L387.5,126.9
		L387.5,139.0 L458.6,139.0 L458.6,151.2 L546.8,151.2 L546.8,163.3 L730.4,163.3 L730.4,175.4 L953.8,175.4
		L953.8,187.6 L975.0,187.6  '/></g>
	</g>
	<g id="gnuplot_plot_7" ><title>V:0.30</title>
<g fill="none" color="black" stroke="currentColor" stroke-width="2.00" stroke-linecap="round" stroke-linejoin="round">
	<g transform="translate(808.3,76.6)" stroke="none" fill="black" font-family="serif" font-size="12.00"  text-anchor="start">
		<text><tspan font-family="serif" >V:0.30</tspan></text>
	</g>
</g>
<g fill="none" color="black" stroke="currentColor" stroke-width="2.00" stroke-linecap="round" stroke-linejoin="round">
	<path stroke='rgb(255,   0, 255)'  d='M757.8,72.1 L800.0,72.1  '/></g>
	</g>
	<g id="gnuplot_plot_8" ><title>V:0.35</title>
<g fill="none" color="black" stroke="currentColor" stroke-width="2.00" stroke-linecap="round" stroke-linejoin="round">
	<g transform="translate(916.9,76.6)" stroke="none" fill="black" font-family="serif" font-size="12.00"  text-anchor="start">
		<text><tspan font-family="serif" >V:0.35</tspan></text>
	</g>
</g>
<g fill="none" color="black" stroke="currentColor" stroke-width="2.00" stroke-linecap="round" stroke-linejoin="round">
	<path stroke='rgb(255, 215,   0)'  d='M866.4,72.1 L908.6,72.1  '/></g>
	</g>
<g fill="none" color="black" stroke="currentColor" stroke-width="2.00" stroke-linecap="round" stroke-linejoin="round">
</g>
<g fill="none" color="black" stroke="black" stroke-width="1.00" stroke-linecap="round" stroke-linejoin="round">
</g>
<g fill="none" color="black" stroke="currentColor" stroke-width="1.00" stroke-linecap="round" stroke-linejoin="round">
</g>
</g>
</svg>

