{
    "instance": "./instances/vispecn13806.instance.json",
    "info": "./info/vispecn13806.info.json",
    "power": 2.0,
    "noise_mean": 1,
    "noise_var": 0.15,
    "max_run_time": 432000,
    "dfs": 1, 
    "easy": 1
}
